,Unnamed: 0,first_name,last_name,gender,County,School ,Interest_1,Interest_2,Interest_3,parent_background,essay,dream_job,email,emergency_contact,grade_level,middle_name
0,0,Jace,Brooks,male,Boone,Madison Middle,Trading,flea markets,taking apart machines,Boone County/Big Ugly,,shop owner,,,,
1,1,Teaghan,Beasley,female,Kanawha,AJ Middle,"Coding, Drawing and Cheerleading",drawing,cheerleading,"Hamlin, WV","With the 50,000 dollars and 50 acres of land there is much inspiration on how to make Paw Paw Creek “booming” again like Grandpa Mason wanted. My thoughts are to build a stable for horses that low privileged children , teens and all ages can come and ride to escape there issues . Children that their parents or guardians who do not have the funds to let them ride are welcome . The 50,000 dollars will be going towards those kids funds. The money will also go to the horses care. Horses may be purchased from unwanted show horses to give them a purpose. The community can always pitch in to help these children . It would be called Paw Paw Stables. The mission would be to promote the physical, cognitive, emotional, social and spiritual health of everyone; regardless of age or ability, by providing horse assisted therapies. Paw Paw stables would provide a place where everyone, with or without special needs, can benefit from the positive effects of horses. Paw Paw Stables could offer year-round trail riding with our horses or bring your own. Ride the seasoned trail horses through the woods and trees. Trail rides are a great way to enjoy nature and horses with your family and friends. Riding for relaxation is great. Boarding and leasing would be available. Boarding means more than just a place to stable your horse. Leasing a horse would be a great way to find out if horses are for you. Camps would be wonderful. Everyone from beginner to seasoned riders could practice their horseback riding skills, expand their horsemanship knowledge and just enjoy horses and friends. Camps focus on setting goals, improving relationships, teamwork, communication skills and community life. Campers will be inspired to believe they can act on their dreams and realize their potential. Campers would learn safety, horse care and more. Camps would also prepare people for lessons, provides a place where all individuals, including those with special needs, can benefit from the positive effects of participating in equine-assisted activities, that would be offered, if they find they enjoy horses and want more. Another great idea, would be party rentals. Paw Paw Stables could offer unique memorable celebrations. Everyone could experience the picturesque, fresh-air atmosphere of the great outdoors. I see a red barn, friendly barnyard animals and beautiful outdoor spaces. Everyone would love a “day on the farm”. I do hope that there is wifi. (lol) Why I think Paw Paw Stables will be “booming”? Horses are healing. A horse is caring and non judging. A horse gives you what you give him or her. A horse lends you it’s strength, speed and freedom. Riding is relaxing, and just a wonderful feeling. Riding helps with movement and well being. Reasons everyone would benefit from Paw Paw Stables are many. Everyone would learn the horses change lives. Horses can help everyone gain confidence and self-esteem. Friendships and partnerships with the animals and other people with common interests are formed. ",forensic mdeical examiner or clothing designer,teaghanbeasley@gmail.com,Paula Beasley 304-767-5057,,
2,2,Mason,Burdette,male,Kanawha,John Adams Middle,"Programming, Graphic Design",graphic design,cryptocurrencies,South Charleston,"I’ve always enjoyed visiting Paw Paw Creek, West Virginia. The mountains in the summer are such a lush green, the air is so fresh. Since I’ve been left with this such wonderful property, I plan to allow others to enjoy the aspects of this area that I did. After some thought, I decided it was best to turn this property into a retreat center, specifically for business executives. This business retreat will allow busy executives the opportunity to slow down, enjoy the natural surroundings, and take time to work on their business and not in their business. I feel like this would be beneficial for these business leaders to escape the hustle and bustle of their offices and allow them to focus and develop new ideas, without the ordinary day-to-day interruptions. My grandpa gave me everything on the property and fifty thousand dollars. I plan to efficiently use this money to create the environment I envision. After evaluating the structures on the property, I deemed the barn was beyond repair and renovation. It would not be worth my time, and money, to renovate the barn. My plan is to demolish the barn and repurpose the wood to create rustic tables for the retreat. It still would remain sentimental to the land, and save a lot of money. Due to the house being located on the far corner of the property, I decided to keep it as housing for the property maintainer, as it is not in the way. The tractor would save me from paying expensive contractors. I’d rather do the demolition work myself to save money. The money I’ve inherited must be spent sparingly. I expect the top business leaders to visit here, so they deserve the best. One step moving forward would be to replace the dial up internet connection with a new fiber optic cable. This would allow the visitors to stay connected to their business. They also need easily communication with partners at corporate offices, so our center will house some of the most state-of-the-art telecommunication systems. It will allow seamless meetings with partners across the world all from the serene setting of rural West Virginia. While all these amenities are provided, they will still be able to focus and enjoy the nature when they need to. I think changing this property will affect the community in a positive way. With increased visitors to the area, businesses will prosper from increased traffic. Specifically, restaurants serving locally sourced foods, outdoor adventure companies (rafting, zip lining, hunting, etc), and local artisans will have greater opportunities to offer their services to our new visitors. Some of the visitors may even realize that with modern communications, business executives can base their operations out of beautiful West Virginia and still have access to global markets. By working with the mayor and other entrepreneurs in Paw Paw Creek, West Virginia, we can create a cooperative environment that encourages more visitors and attracts some to put done permanent roots. Add individual feedback",entrepreneur or software engineer,MasonBurdette@outlook.com,"John Burdette - 304-550-7774 - 1802 Rolling Hills Road, Charleston, WV - johnburdette@live.com",,
3,3,Collinn Long ,Tran,male,Kanawha,John Adams Middle,travelling,socializing,learning new things,"My parents grew up in Vietnam, then they immigrated to the United States.","Life was good, indeed it was. Everything was going fine, up until recently when my grandpa, Mason, passed away. Though I haven’t been that close to him in recent years, I still remembered all the good memories we made on his farm. He always told me, “to not bite more than I can chew” than why did he leave me the inheritance? I’ve always been known to be impulsive. The only explanation I could find was on his farewell letter to me, which was, “I believe in you, Sprout.” He believed that I really could use the inheritance to truly create something innovative to save his hometown, Paw Paw Creek, WV. After a few days, I was determined to come up with something miraculous to fulfill my grandpa’s last wish. So I called my friend, Owen to come over. He was in my same grade, tall with a somewhat huskier build. I explained what happened and what was about to happen. Luckily, he could comprehend. If there was any one who could help me, it was Owen, he’s smart and cunning. I was willing to offer him 50% of what I made if he could help me. One problem however, we still don’t know what our business will be. After examining my grandpa’s farewell letter, I noticed that I have missed something crucial, it was that my grandpa had convinced the town’s mayor to not charge us for usage of water, gas and electric. This was great news, one less problem we had to deal with. We still haven’t figured out what we could do; we only had $50,000. We continued debating throughout the day of what would and would not work. At the end of the day, I was still empty on ideas, even Owen was and he’s come up with the craziest things I’ve heard. We just couldn’t come up with anything. Until eventually Owen proposed that perhaps going to my grandpa’s estate would give us some inspiration, and maybe if we weren’t in the city, we could know what people in the countryside wanted. So Owen stayed the night as we continued to debate. The next morning we informed our parents we were taking a trip to grandpa’s farm. They didn’t have much to say so we packed our bags and left a few hours later. Riding down to Paw Paw Creek was extremely boring. It was even more bland once we got there, the most modern thing we saw there was probably a vending machine. I could see why he wanted us to make the town lively again. Before going to the farm, we stopped by the salt mines. Except there wasn’t anything there anymore, just mounds of gravel and fences to stop anyone from trespassing. Therefore, we continued to the farm. As I drove through the gates that grandpa would stand and wait for us at, memories started to hit me. Owen must’ve saw my teary eyes so we didn’t talk much as we approached the house. It was just as I had remembered. It was big, red, and very old fashioned. I opened it with the key that mom gave me and we walked in as we were greeted by the humid air and scent of musty furniture; no one’s been here for awhile. I looked at a nearby cabinet, on there was a picture of my grandma, who had passed before I was born due to illness. It was burning, luckily my mother still payed the bills to keep this place going and we quickly turned on the air conditioning. We sat around, still clueless of what we were going to do. I stared blankly onto the fields before Owen interrupted the silence, “It’s so boring, there’s no restaurant, no stores, and no form of entertainment!” Suddenly, I got an idea, Eureka! Owen looked at me as if I was a madman, “You want to open up an amusement park?” I quickly answered, “Yes, just think about it. If we could open up an amusement park, it would attract so many travelers from other states. Than our state wouldn’t be so bland anymore, the people here could have jobs and more importantly, this wouldn’t be a forgotten town.” Owen must’ve been too tired to argue so he gave in. We were about to rest when we heard a voice outside, “Mason, Mason you home?” Owen and I jumped up as we exchanged worried glances. Then the being began to approach us, we couldn’t make out who it was due to the darkness outside. So we rushed down stairs. To our relief, it was just an elderly man. We opened the door and he looked even more confused than we were. Long story short, it was grandpa’s friend who hasn’t seem him in a few years and was unaware that he had passed. We also introduced ourselves and why we were here. It was a long conversation before the man (his name is Bill by the way) told us how he had moved to New York City and struck rich. He was intrigued in our idea to renovate the land and he saw it as a business opportunity. He would give us the funds that it would take to open up this amusement park, in return we give him a fair share. Weeks have passed since we returned from the farm. To summarize, not only is Bill super wealthy, he also has major connections. He recently informed that he had gotten us help to create this place, as well as other big businesses who were willing to work with us if it all goes well. It included hotels, restaurants, and more. This was literally a dream come true, not just for me, but for grandpa. I’ve done it grandpa, I’ve brought glory back to Paw Paw and soon this small town will be a booming city with it’s name on the map! Final note, I’m planning on calling this park, “Wish World.”Add individual feedback","business entrepreneur      I don’t necessarily have a dream job because it doesn’t always play out as we want.  Don’t get me wrong, I’m not pessimistic but more of a realist.  So realistically speaking, I would love to be a business entrepreneur.  But I’ll probably start out as a non-invasive cardiologist to make sure that I’ll have a stable job and can help others; as that’s my ultimate goal.  But to also make money to support myself and other people who need it. ",collinntran1287@gmail.com,"You can reach my mom, Katie, at 304-561-4999",,
4,4,Alyssa,Smith,female,Putnam,Rock Branch Elem.,DIY projects,playing with her pug,learning to cook,Lincoln and Putnam,,furniture store owner,,,,
5,5,Caden,Ball,male,Fayette,Mountain View Christian,inventing,recycling,hunting,Beckley and Fayetteville,,helicopter pilot,,,,
6,6,Josie,Auenstein,female,Wood,Parkersburg Catholic Elem.,ballet,reading,guitar,Parkersburg,"Although I miss grandpa very much, I am honored that he left me his farm and $50,000. Now what to do with it. I think that a waterpark in side the barn could work. So that when people com in the winter they could go on waterslides and play in the pool. But I need more than just that so I’ll ask about partnering with Columbus Zoo, they have good rides. So now for that old farm house, I know a bed & breakfast will do just fine. Also a bike trail trough that farm. The bike trail could go from the farm house all the way through the farm with stops and bird watching places every 2 miles or so. Also there will be a petting zoo for the little kids so that they can see the animals. With the water park in the barn there will be 3 waterslides to go on. One that drops straight down and the second one will be one that curls around, and the third will be a smaller one will be for kids who their parents don’t want them on the other ones. In the Bed & Breakfast there will be breakfast lunch and dinner everyday and then there will also be a little gift shop to go to. And the Gift Shop can have T-Shirts that say “Grandpa’s Barn and Farm” and have a big red barn on them. There will also be little toy animals for the little babies that come. But at the petting zoo there will be animals like sheep, pigs, goats, and little horses. There will also be Horse back riding to do around the farm. And with the horses there will be some for adults and some for kids. With the horses there can be trails you can do or a little fenced in area to ride the horses in. There can also be a smaller barn for the kids to go in and see what life is like growing up on a farm. By that I mean that they can try out different chores to do in the barn like- putting hay in the stalls and feeding the horses and also sweeping up the barn. I think that $50,000 can cover most of that and if not I can build the little barn and the bird watching stops on the bike trail. And I won’t forget that Columbus Zoo could be helping me. But if they don’t agree to help I think I could ask someone else to help. I think that my other relatives could help out too. Like my mom and dad. I don’t know if grandpa would be proud or worried on how it would go but I think I could do it with some help. And if it doesn’t work out than oh-well. But I’m excited to see how it’ll go. I have to go get started now and see what happens so I’ll tell you how it goes. Talk later bye!",cupcake maker,markerin.augenstein@gmail.com,Erin Augenstein 740-350-4275 2000 Foley Dr. Parkersburg WV 26104 ,5th,
7,7,Catherine,Maxwell,female,Fayette ,Saint Peter and Paul Catholic School,basketball,soccer,listening to music,"My dad was born in turkey, and moved to florida, then moved into WV where his parents are from. My mom is from Ohio.",,helping animals or people,kimriver200@yahoo.com,"Kim Maxwell, #681.318.8018, kimriver2000@yahoo.com",,
8,8,Chase,Steorts,male,Putnam,Hurricane Middle,skiing,reading,spending time with family,"My mom: Charleston, WV, My dad: St. Albans, WV","Today has been a very dreary day, we sadly laid to rest my beloved Grandpa Mason. He has left me with his precious lifelong home, farm, and property with some of his savings (fifty thousand dollars). Grandpa wanted me"" to create something truly innovative to save the town"". So, I plan to bring the town back to his former glory like during the time of the salt mines and hope one day make the town more magnificent so everyone will truly be proud of the town it has become. After thinking long and hard I want to do something that will make Grandpa extremely proud. I want to help the community so, I plan to utilize the property and to breathe new life into the farm by growing food for a soup kitchen for the needy and building a homeless shelter. So, I am willing to put in the time and learn the necessary farming and business skills to become a successful farmer. During the fall, we will need to harvest grains and fruit crops, like apples. In the winter we will need to tend to the animals and get ready for spring by making sure equipment is repaired and ready for the growing season. In the spring, I will need to prepare the soil for planting. Then plant the crops of corn, carrots, cabbage, lettuce, and potatoes. During the summer, I will need to harvest strawberries and peas and plant winter wheat. When we think of hunger, our mind naturally envisions children in other parts of the world. It is difficult for many of us to consider that hunger exists right in our backdoor. This soup kitchen will help the elderly, unemployed, underemployed, poor and homeless women, men, and children. First, I would spend some of the fifty thousand to buy numerous seeds, plants, and gardening supplies and a variety of farm animals. While the plants are growing I would hire Steorts Homes Design and Construction to help me with my vision of creating the shelter and soup kitchen, which will be called, ""Mason's Haven"", to honor the reason why this project exists. Once the shelter and soup kitchen is built and the crops are grown we will have volunteers help us with the food to make meals for the shelter. The volunteers will come from the local schools, churches, and local community groups and everywhere else in between. We will provide a variety of hot meals to help people get back on their feet it will be a safe haven, no questions asked. Our main goal will be to provide a clean, safe uplifting environment for those in need of food and shelter. In short, we will help people who, through no fault of their own, find themselves in a crisis. This ""old farm"" will help change lives, feed the hungry and enhance the community. Hopefully, through grants and donations, we will be able to continue running for generations to come. I am going to take my dreams and brainstorms and make them a reality with Grandpa Mason's generosity and I know he will be so proud looking down on me that ""the magic"" is back in Paw Paw Creek, West Virginia. Add individual feedback",computer freelancer,csteorts@icloud.com,Sara Steorts 304.546.0758 email: sarasteorts@me.com,,
9,9,Alyssa,Smith,April Smith 304-395-2032,,Rock Branch Elementary,I like doing DIY projects that involve customizing different things Playing with my Pug Learning how to cook,"`Lincoln and Putman Counties, WV",I want to be a business owner of a furniture store I want to name called transformation that manufactures multi purpose furniture items.,"Since Grandpa Mason decided to pass his land to me after he passed away, I have set big plans and goals. To accomplish this task, there will be many steps involved. There is forest on this land and I want to timber the trees for extra money for my business and I don’t really need the forest for what I have in mind. I would love to have a hot air balloon and a bird observatory, to accomplish these expensive tasks, I will need to gain a few investors. The hot air balloon will not only be a fun experience, but it will be an educational one as well, so kids can learn about the first county in West Virginia. When going to the zoo, I loved the experience of myself along with other kids enjoying the bird observatory, this is why I would like to have one on the land. It is a very educational and relaxing experience for children of all ages. We will also use the barn on site for a petting zoo filled with rescued animals. The animals will vary in size to accommodate kids of all ages. I will also need to build a large building to house the creation store where kids can make anything and turn it into a 3-D figure like shoes, t-shirts, wax hands, and anything that would inspire the children to be themselves. Oh and we don’t want to forget a favorite of kids, old fashion hayrides. Here at “ Alyssa’s Educate & Create” we are here to create and educate kids with fun activities. The goal of making money can be found by charging admission. We would have a flat rate fee for everything but the creation store. The creation store activities and items will need to be purchased at extra costs. I envision this as a place to hold parties, gatherings, reunions, events and girl scout meetups which would mean a personalized patch. Paw Paw WV is a great place to try to help boom in popularity and tourist attraction. So far I haven’t heard of anything like this so far and we definitely need some more things involving kids to help them know that being theirself and expressing their personality is what really matters. This business is geared toward children of all ages, but ultimately it’s place for families to gather and have family time with each other. My dream for this business is for to spread around the US and Canada plus for it to be something every kid wants to have personalized item from Educate & Create. A good key to any business, is promotion. I plan to do this by word of mouth, social media and billboards to draw customers. Lack of promotion can break a business very fast and I want to concentrate a lot of time on promotion. Winning this opportunity would start me off on the right foot for my dreams and future to come, I also want to win this to prove that girls can change the world and we can do anything. Thank you very much and have an outstanding day that makes you happy. Add individual feedback",,,,,5th grade,
